{
  "id": 22,
  "stack": [{
    "number": 1,
    "fill": "solid",
    "color": "green",
    "shape": "oval"
  },{
    "number": 3,
    "fill": "solid",
    "color": "green",
    "shape": "squiggle"
  },{
    "number": 2,
    "fill": "solid",
    "color": "green",
    "shape": "diamond"
  }]
}